0923114498
0923835752
0923155241
0923836031
0923835448
0923813206
0923337976
0923813547
0923338683
0923345900
0923329352
0923813516
0923812983
0923813515
0923813513
0923811904
0923811905
0923342906
0923338312
0923338746
0923834808
0923815178
0923815228
0923814462
0923812194
0923160173
0923835509
0923814105
0923341536
0923505482
0923814197
0923814195
0923814174
0923835458
0923342738
0923338311
0923814453
0923165415
0923811925
0923158600
0923164338
0923835528
0923835523
0923835518
0923835519
0923835515
0923835190
0923835492
0923109010
0923341683
0923341675
0923337912
0923164692
0923582974
0923108935
0923582951
0923583254
0923326248
0923336824
0923814253
0923327187
0923345250
0923328691
0923326942
0923328682
0923327382
0923835955
0923812429
0923341722
0923590866
0923812262
0923815264
0923812875
0923570327
0923813802
0923814255
0923342098
0923112845
0923156963
0923815370
0923812251
0923341624
0923570797
0923570804
0923344465
0923337145
0923345915
0923345902
0923330251
0923111613
0923113382
0923164218
0923113419
0923341956
0923112647
0923113945
0923567485
0922707839
0923330173
0923339532
0923812159
0923341942
0923152151
0923107837
0923342353
0923812981
0923813537
0923813538
0923138898
0923139949
0923815298
0923345935
0923339853
0923338124
0923339852
0923340478
0923339850
0923338620
0923813122
0923812119
0923812225
0923163658
0923814720
0923812149
0923812317
0923811902
0923811896
0923814226
0923812206
0923814705
0923325765
0923342811
0923325708
0923813187
0923813186
0923813184
0923813617
0923813286
0923813284
0923813309
0923813310
0923337401
0923336944
0923343027
0923335390
0923813270
0923156705
0923325709
0926034393
0925685083
0925639144
0925629856
0925210419
0925228025
0925217045
0925216605
0925248161
0925358284
0925383002
0923337954
0923814982
0923812152
0923164713
0923328921
0923338243
0923338330
0923811901
0923337962
0923337964
0923330154
0923814300
0923814301
0923814643
0923814624
0923112067
0923570185
0927953972
0927221624
0927959943
0927959890
0927959875
0927959851
0927980387
0927226348
0927226396
0927226401
0927953082
0927954225
0927954962
0927953093
0927226354
0927138871
0927917225
0927916923
0927916987
0927237492
0927237477
0927850160
0927965247
0927968578
0924836057
0924800683
0924836078
0924800607
0924751057
0924800458
0924430935
0924801947
0924800358
0924431369
0924836211
0924836473
0924801230
0922706467
0922706534
0922706062
0922707875
0922707841
0922707873
0922726702
0922051760
0922052051
0922709637
0922053564
0922461625
0922053430
0922706896
0922053423
0922707509
0922708192
0922053425
0922440109
0922416212
0922416356
0922052257
0922417343
0922461254
0922463820
0922706974
0922461403
0922461585
0922460644
0922707846
0922053484
0922053909
0922415529
0923812395
0923813371
0923815025
0923812115
0923570855
0923813188
0923812110
0923812783
0923812226
0923004560
0923004373
0923570724
0923813343
0923812342
0923812322
0923813403
0923811893
0923814227
0923339341
0923340436
0923112602
0923340538
0923338036
0923814228
0923812060
0923812593
0923815225
0923813495
0923813243
0923004118
0923570901
0923591037
0923157051
0923835486
0923835481
0923835607
0923324353
0923813416
0923814782
0923813463
0923812204
0923812315
0923813062
0923812552
0923813262
0923813264
0923164253
0923834484
0923813306
0923814746
0923114087
0923814744
0923107642
0923113951
0923112530
0923107934
0923341810
0923108476
0923112190
0923163870
0923812716
0923159436
0923814601
0923338545
0923814641
0923814640
0923814315
0923812423
0923815172
0923812193
0923812841
0923836008
0923813794
0923505185
0923341595
0923812722
0923835497
0924800520
0924804094
0924801174
0924415938
0924893194
0924801185
0924801093
0924754912
0924661141
0924836252
0924801152
0924801150
0924802110
0924836324
0924801126
0924801125
0924801124
0923835792
0923330587
0923835608
0923812246
0923813509
0923163900
0923812741
0923344258
0923157910
0923813374
0923812847
0923813478
0923813477
0923813476
0923813475
0923814606
0923109013
0923336784
0923813218
0923814254
0923836033
0923337391
0923813303
0923156278
0923111627
0923108466
0923157376
0923327746
0923344612
0923570773
0923336753
0923113910
0923153895
0923327854
0923344504
0923344502
0923344497
0923344496
0923344492
0923337572
0923094440
0923815076
0923111625
0923834062
0923813548
0923814943
0923814973
0923814972
0923812948
0923814970
0923814205
0923814208
0923812114
0923814245
0923335593
0923815167
0922460160
0922709148
0922440121
0922706158
0922708198
0922052358
0922706967
0922708874
0922706208
0922050840
0922707192
0922461588
0922461589
0922461590
0922461591
0922461592
0922053242
0922706769
0922707490
0922706836
0922460359
0922706059
0922707861
0925228120
0925226706
0925249405
0925211334
0925220630
0925919325
0925688520
0925207883
0925772315
0925247004
0925375134
0925433941
0925772500
0925374811
0925374820
0925374850
0925823384
0925374452
0925361782
0925361282
0925225542
0925715870
0925714843
0925547348
0925714416
0925379851
0925226794
0925970951
0925718019
0927850908
0925509989
0925506815
0925674481
0921040560
0927956527
0927337635
0927817624
0927817534
0927965375
0927121310
0927840473
0927851241
0927918429
0927815309
0927918382
0927957408
0927956707
0927954760
0927228714
0927962487
0927223738
0927105805
0927956346
0927851481
0927851956
0927953364
0927816712
0927220631
0927968108
0927959842
0927817560
0927817519
0927817546
0927815691
0927817530
0927965129
0927817655
0927817598
0927335702
0927817342
0927915457
0927816322